* resonance selon varicap 
.include opamp.mod
C2 Net-_C2-Pad1_ Net-_C1-Pad2_ 5.5f
L1 Net-_C2-Pad1_ Net-_L1-Pad2_ 18m
R1 Net-_C1-Pad1_ Net-_L1-Pad2_ 10
V1 Net-_C1-Pad1_ GND dc 0 ac 1
C1 Net-_C1-Pad1_ Net-_C1-Pad2_ 1p
R2 Net-_C1-Pad1_ Net-_C1-Pad2_ 10Meg
C3 Net-_C1-Pad1_ GND 20p
C4 GND Net-_C1-Pad2_ 10p
R3 Net-_C1-Pad2_ GND 10k
V2 Net-_U1-Pad4_ GND dc 0 ac 0
R5 Vout GND 50
V3 Net-_U1-Pad7_ GND dc 5 ac 0
C5 Net-_C1-Pad2_ GND 10.000000p
R4 Net-_R4-Pad1_ Vout 50
XU1 Net-_C1-Pad2_ Net-_R4-Pad1_ Vout opamp
.control 
ac lin 1024 1Meg 10e3Meg
print vdb(Vout) vp(Vout) > t 
quit 
.endc 
